{
  "languageserver": {
    "go": {
      "command": "gopls",
      "rootPatterns": ["go.mod"],
      "trace.server": "verbose",
      "filetypes": ["go"]
    }
  },
  "suggest.noselect": false,
  "diagnostic.displayByAle": true,
  "suggest.floatEnable": true
}
